<svg id="user_icon" data-name="user icon" xmlns="http://www.w3.org/2000/svg" width="14.866" height="19.568" viewBox="0 0 14.866 19.568">
  <circle id="Ellipse_42" data-name="Ellipse 42" cx="4.387" cy="4.387" r="4.387" transform="translate(3.046 0)" fill="#bf1e2d"/>
  <path id="Path_355" data-name="Path 355" d="M7.395,2.049c4.105,0,7.472,2.566,7.472,6.672S0,12.826,0,8.721,3.289,2.049,7.395,2.049Z" transform="translate(0 7.769)" fill="#bf1e2d"/>
</svg>
